127.0.0.1 - - [28/Sep/2021:11:31:18 +0200] "GET / HTTP/1.1" 404 687
0:0:0:0:0:0:0:1 - - [28/Sep/2021:11:31:19 +0200] "GET /HolaSpringFrameWork/ HTTP/1.1" 200 177
127.0.0.1 - - [28/Sep/2021:11:43:04 +0200] "GET / HTTP/1.1" 404 687
0:0:0:0:0:0:0:1 - - [28/Sep/2021:11:43:04 +0200] "GET /HolaSpringFrameWork/ HTTP/1.1" 200 177
127.0.0.1 - - [28/Sep/2021:11:47:54 +0200] "GET / HTTP/1.1" 404 687
0:0:0:0:0:0:0:1 - - [28/Sep/2021:11:47:54 +0200] "GET /HolaSpringFrameWork/WEB-INF/views/Listado.jsp HTTP/1.1" 404 610
0:0:0:0:0:0:0:1 - - [28/Sep/2021:11:48:03 +0200] "GET /HolaSpringFrameWork/listado HTTP/1.1" 200 312
127.0.0.1 - - [28/Sep/2021:11:52:07 +0200] "GET / HTTP/1.1" 404 687
0:0:0:0:0:0:0:1 - - [28/Sep/2021:11:52:07 +0200] "GET /HolaSpringFrameWork/ HTTP/1.1" 200 177
0:0:0:0:0:0:0:1 - - [28/Sep/2021:11:52:12 +0200] "GET /HolaSpringFrameWork/listado HTTP/1.1" 500 5533
127.0.0.1 - - [28/Sep/2021:11:54:56 +0200] "GET / HTTP/1.1" 404 687
0:0:0:0:0:0:0:1 - - [28/Sep/2021:11:54:57 +0200] "GET /HolaSpringFrameWork/ HTTP/1.1" 200 177
0:0:0:0:0:0:0:1 - - [28/Sep/2021:11:55:01 +0200] "GET /HolaSpringFrameWork/listado HTTP/1.1" 500 5548
127.0.0.1 - - [28/Sep/2021:12:33:50 +0200] "GET / HTTP/1.1" 404 687
0:0:0:0:0:0:0:1 - - [28/Sep/2021:12:33:51 +0200] "GET /HolaSpringFrameWork/ HTTP/1.1" 200 177
0:0:0:0:0:0:0:1 - - [28/Sep/2021:12:33:59 +0200] "GET /HolaSpringFrameWork/listado HTTP/1.1" 500 5493
